// Jest Snapshot v1, https://goo.gl/fbAQLP

exports[`it works 1`] = `
.c0 {
  -webkit-align-items: center;
  -webkit-box-align: center;
  -ms-flex-align: center;
  align-items: center;
  display: -webkit-inline-box;
  display: -webkit-inline-flex;
  display: -ms-inline-flexbox;
  display: inline-flex;
  -webkit-box-pack: center;
  -webkit-justify-content: center;
  -ms-flex-pack: center;
  justify-content: center;
  position: fixed;
  top: 0;
  left: 0;
  right: 0;
  bottom: 0;
  width: 100%;
  z-index: 1;
}

.c1 {
  background-color: rgba(0,0,0,0.4);
  position: fixed;
  top: 0;
  left: 0;
  right: 0;
  bottom: 0;
  z-index: -1;
}

.c2 {
  -webkit-align-items: center;
  -webkit-box-align: center;
  -ms-flex-align: center;
  align-items: center;
  background-color: #FFF000;
  border: 1px solid #929292;
  border-radius: 10px;
  color: #004B8C;
  display: -webkit-box;
  display: -webkit-flex;
  display: -ms-flexbox;
  display: flex;
  font-size: 22px;
  -webkit-flex-wrap: wrap;
  -ms-flex-wrap: wrap;
  flex-wrap: wrap;
  -webkit-box-pack: center;
  -webkit-justify-content: center;
  -ms-flex-pack: center;
  justify-content: center;
  line-height: 1.4;
  max-width: 500px;
  min-height: 175px;
  min-width: 300px;
  padding: 25px 50px;
  position: relative;
  text-align: center;
  z-index: 1;
}

<div>
  <p>
    Holi
  </p>
  <div
    className="c0"
  >
    <div
      className="c1"
      onClick={[Function]}
    />
    <div
      className="c2"
    >
      contenidoyarn 
    </div>
  </div>
</div>
`;
