// Jest Snapshot v1, https://goo.gl/fbAQLP

exports[`Palette 1`] = `
.c0 {
  -webkit-align-items: center;
  -webkit-box-align: center;
  -ms-flex-align: center;
  align-items: center;
  background: #009BD2;
  border: 5px solid #fff;
  border-radius: 10px;
  box-sizing: border-box;
  box-shadow: 0px 2px 4px rgba(0,0,0,.18);
  color: #222222;
  cursor: pointer;
  font-family: 'Arial';
  font-size: 16px;
  display: -webkit-box;
  display: -webkit-flex;
  display: -ms-flexbox;
  display: flex;
  -webkit-box-pack: center;
  -webkit-justify-content: center;
  -ms-flex-pack: center;
  justify-content: center;
  height: 175px;
  margin: 10px;
  position: relative;
  overflow: hidden;
  width: 225px;
  -webkit-transition: .3s;
  transition: .3s;
}

.c0:hover {
  -webkit-transform: scale(1.05,1.1);
  -ms-transform: scale(1.05,1.1);
  transform: scale(1.05,1.1);
}

.c0:active {
  -webkit-transform: scale(1,.95);
  -ms-transform: scale(1,.95);
  transform: scale(1,.95);
}

.c0:before {
  -webkit-align-items: center;
  -webkit-box-align: center;
  -ms-flex-align: center;
  align-items: center;
  background-color: #FFFFFF;
  box-shadow: 0px 2px 0px #FFFFFF;
  content: "blue";
  display: -webkit-box;
  display: -webkit-flex;
  display: -ms-flexbox;
  display: flex;
  height: 50px;
  padding-left: 15px;
  text-transform: uppercase;
  position: absolute;
  bottom: 0;
  left: 0;
  right: 0;
}

.c0 input {
  background-color: transparent;
  border: none;
  cursor: pointer;
  font-size: 14px;
  font-weight: bold;
  position: absolute;
  left: 15px;
  right: 15px;
  bottom: 17.5px;
  text-align: right;
  width: 185px;
}

.c0 input:hover,
.c0 input:focus {
  outline: none;
}

<div
  bgColor="#009BD2"
  className="c0"
  color="blue"
  onClick={[Function]}
>
  <input
    id="ColorClipboard-blue"
    readOnly={true}
    type="text"
    value="#009BD2"
  />
</div>
`;
