// Jest Snapshot v1, https://goo.gl/fbAQLP

exports[`The color is correct.  1`] = `
.c0 {
  font-family: Roboto,sans-serif;
  font-size: 18px;
  color: inherit;
}

@media screen and (max-width:767px) {
  .c0 {
    font-size: 16px;
  }
}

<p
  className="c0"
/>
`;

exports[`The font family is correct.  1`] = `
.c0 {
  font-family: Roboto,sans-serif;
  font-size: 18px;
  color: inherit;
}

@media screen and (max-width:767px) {
  .c0 {
    font-size: 16px;
  }
}

<p
  className="c0"
/>
`;

exports[`The size is correct.  1`] = `
.c0 {
  font-family: Roboto,sans-serif;
  font-size: 18px;
  color: inherit;
}

@media screen and (max-width:767px) {
  .c0 {
    font-size: 16px;
  }
}

<p
  className="c0"
/>
`;
