// Jest Snapshot v1, https://goo.gl/fbAQLP

exports[`The color is correct.  1`] = `
.c0 {
  color: #004b8c;
  font-size: 32px;
  font-family: 'DecourSoft',sans-serif;
  text-align: left;
}

@media screen and (max-width:767px) {
  .c0 {
    font-size: 26px;
  }
}

<h3
  className="c0"
/>
`;

exports[`The size is correct. 1`] = `
.c0 {
  color: #004b8c;
  font-size: 32px;
  font-family: 'DecourSoft',sans-serif;
  text-align: left;
}

@media screen and (max-width:767px) {
  .c0 {
    font-size: 26px;
  }
}

<h3
  className="c0"
/>
`;
